Thu Jul 16 19:15:01 CEST 2020
Preloading tcmalloc_minimal.so
Py:Athena            INFO including file "AthenaCommon/Preparation.py"
Py:Athena            INFO using release [WorkDir-22.0.16] [x86_64-centos7-gcc8-opt] [atlas-work3/e277cdc296a] -- built on [2020-07-16T1652]
Py:Athena            INFO including file "AthenaCommon/Atlas.UnixStandardJob.py"
Py:Athena            INFO executing ROOT6Setup
Py:Athena            INFO including file "AthenaCommon/Execution.py"
Py:Athena            INFO including file "DataModelRunTests/ByteStreamTestWrite_jo.py"
Py:Athena            INFO including file "DataModelRunTests/loadWriteDicts.py"
Py:Athena            INFO including file "DataModelRunTests/commonTrailer.py"
Py:Athena            INFO including file "DataModelRunTests/setCatalog.py"
Py:Athena            INFO including file "AthenaCommon/runbatch.py"
Py:ConfigurableDb    INFO Read module info for 5551 configurables from 77 genConfDb files
Py:ConfigurableDb WARNING Found 1 duplicates among the 77 genConfDb files :
Py:ConfigurableDb WARNING --------------------------------------------------
Py:ConfigurableDb WARNING   -<component name>: <module> - [ <duplicates> ]
Py:ConfigurableDb WARNING --------------------------------------------------
Py:ConfigurableDb WARNING   -TrigInDetAccelerationTool: TrigInDetAccelerationTool.TrigInDetAccelerationToolConf - ['TrigFastTrackFinder.TrigFastTrackFinderConf']
Py:ConfigurableDb WARNING Fix your cmt/requirements file !!
ApplicationMgr       INFO Updating Gaudi::PluginService::SetDebug(level) to level= 'PluginDebugLevel':0
ApplicationMgr       INFO Updating Gaudi::PluginService::SetDebug(level) to level= 'PluginDebugLevel':0
ApplicationMgr    SUCCESS 
====================================================================================================================================
                                                   Welcome to ApplicationMgr (GaudiCoreSvc v33r1)
                                          running on lxplus708.cern.ch on Thu Jul 16 19:15:12 2020
====================================================================================================================================
ApplicationMgr       INFO Application Manager Configured successfully
ApplicationMgr       INFO Updating Gaudi::PluginService::SetDebug(level) to level= 'PluginDebugLevel':0
AthDictLoaderSvc     INFO in initialize...
AthDictLoaderSvc     INFO acquired Dso-registry
ClassIDSvc           INFO  getRegistryEntries: read 3308 CLIDRegistry entries for module ALL
CoreDumpSvc          INFO install f-a-t-a-l handler... (flag = -1)
CoreDumpSvc          INFO Handling signals: 11(Segmentation fault) 7(Bus error) 4(Illegal instruction) 8(Floating point exception) 
AthenaEventLoopMgr   INFO Initializing AthenaEventLoopMgr - package version AthenaServices-00-00-00
ClassIDSvc           INFO  getRegistryEntries: read 705 CLIDRegistry entries for module ALL
ClassIDSvc           INFO  getRegistryEntries: read 1734 CLIDRegistry entries for module ALL
ClassIDSvc           INFO  getRegistryEntries: read 6320 CLIDRegistry entries for module ALL
xAODMaker::Even...   INFO Initializing - Package version: xAODEventInfoCnv-00-00-00
xAODMaker::Even...   INFO Initializing - Package version: xAODEventInfoCnv-00-00-00
xAODMaker::Even...WARNING Beam conditions service not available
xAODMaker::Even...WARNING Will not fill beam spot information into xAOD::EventInfo
ClassIDSvc           INFO  getRegistryEntries: read 423 CLIDRegistry entries for module ALL
PyComponentMgr       INFO Initializing PyComponentMgr...
LoadWriteDicts       INFO Initializing LoadWriteDicts...
ClassIDSvc           INFO  getRegistryEntries: read 3020 CLIDRegistry entries for module ALL
TrigSerializeCn...   INFO initialize()
ClassIDSvc           INFO  getRegistryEntries: read 109 CLIDRegistry entries for module ALL
Warning in <TClass::Init>: no dictionary for class CosmicMuonCollection_tlp1 is available
Warning in <TClass::Init>: no dictionary for class MdtTrackSegmentCollection_tlp1 is available
Warning in <TClass::Init>: no dictionary for class CosmicMuonCollection_p1 is available
Warning in <TClass::Init>: no dictionary for class CosmicMuon_p1 is available
Warning in <TClass::Init>: no dictionary for class MdtTrackSegmentCollection_p1 is available
Warning in <TClass::Init>: no dictionary for class MdtTrackSegment_p1 is available
Warning in <TClass::Init>: no dictionary for class MdtTrackSegmentCollection_p2 is available
Warning in <TClass::Init>: no dictionary for class PanTauDetails_p1 is available
ToolSvc.TrigSer...   INFO Initializing - Package version: TrigSerializeTP-00-00-00
ClassIDSvc           INFO  getRegistryEntries: read 17975 CLIDRegistry entries for module ALL
DecisionSvc          INFO Inserting stream: StreamBSFileOutput with no Algs
OutputStreamSeq...   INFO Initializing OutputStreamSequencerSvc - package version AthenaServices-00-00-00
StreamBSFileOut...   INFO Initializing StreamBSFileOutput.DefaultNameTool - package version AthenaServices-00-00-00
AthenaPoolCnvSvc     INFO Initializing AthenaPoolCnvSvc - package version AthenaPoolCnvSvc-00-00-00
PoolSvc              INFO io_register[PoolSvc](xmlcatalog_file:PoolFileCatalog.xml) [ok]
PoolSvc              INFO Set connectionsvc retry/timeout/IDLE timeout to  'ConnectionRetrialPeriod':300/ 'ConnectionRetrialTimeOut':3600/ 'ConnectionTimeOut':5 seconds with connection cleanup disabled
PoolSvc              INFO Frontier compression level set to 5
DBReplicaSvc         INFO Frontier server at (serverurl=http://atlasfrontier-local.cern.ch:8000/atlr)(serverurl=http://atlasfrontier-ai.cern.ch:8000/atlr)(serverurl=http://ccfrontier.in2p3.fr:23128/ccin2p3-AtlasFrontier)(proxyurl=http://ca-proxy-atlas.cern.ch:3128)(proxyurl=http://ca-proxy-meyrin.cern.ch:3128)(proxyurl=http://ca-proxy.cern.ch:3128)(proxyurl=http://atlasbpfrontier.cern.ch:3127)(proxyurl=http://atlasbpfrontier.fnal.gov:3127) will be considered for COOL data
DBReplicaSvc         INFO Read replica configuration from /cvmfs/atlas-nightlies.cern.ch/repo/sw/master_Athena_x86_64-centos7-gcc8-opt/2020-07-15T2139/Athena/22.0.16/InstallArea/x86_64-centos7-gcc8-opt/share/dbreplica.config
DBReplicaSvc         INFO Total of 10 servers found for host lxplus708.cern.ch [ATLF ATLAS_COOLPROD atlas_dd ATLAS_CONFIG INT8R INTR ATONR_COOL ATONR_CONF DEVDB11 ATLF ]
PoolSvc              INFO Successfully setup replica sorting algorithm
PoolSvc              INFO Setting up APR FileCatalog and Streams
PoolSvc              INFO POOL WriteCatalog is xmlcatalog_file:PoolFileCatalog.xml
DbSession            INFO     Open     DbSession    
Domain[ROOT_All]     INFO >   Access   DbDomain     READ      [ROOT_All] 
ByteStreamEvent...   INFO Initializing ByteStreamEventStorageOutputSvc - package version ByteStreamCnvSvc-00-00-00
ByteStreamEvent...   INFO eformat version to use: "current"
ByteStreamEvent...   INFO event storage (BS) version to use: "current"
ByteStreamEvent...   INFO Reinitialization...
StreamBSFileOutput   INFO Found HelperTools = PrivateToolHandleArray([])
StreamBSFileOutput   INFO Data output: ByteStreamEventStorageOutputSvc
StreamBSFileOutput   INFO I/O reinitialization...
EventSelector        INFO  Enter McEventSelector Initialization 
AthenaEventLoopMgr   INFO Setup EventSelector service EventSelector
ApplicationMgr       INFO Application Manager Initialized successfully
ApplicationMgr       INFO Application Manager Started successfully
EventPersistenc...   INFO Added successfully Conversion service:McCnvSvc
AthenaEventLoopMgr   INFO   ===>>>  start of run 0    <<<===
AthenaEventLoopMgr   INFO   ===>>>  start processing event #0, run #0 0 events processed so far  <<<===
ClassIDSvc           INFO  getRegistryEntries: read 1379 CLIDRegistry entries for module ALL
MetaDataSvc          INFO Initializing MetaDataSvc - package version AthenaServices-00-00-00
MetaDataSvc          INFO Found MetaDataTools = PublicToolHandleArray([])
ROBDataProviderSvc   INFO Initializing ROBDataProviderSvc - package version ByteStreamCnvSvcBase-00-00-00
ROBDataProviderSvc   INFO  ---> Filter out empty ROB fragments                               =  'filterEmptyROB':False
ROBDataProviderSvc   INFO  ---> Filter out specific ROBs by Status Code: # ROBs = 0
ROBDataProviderSvc   INFO  ---> Filter out Sub Detector ROBs by Status Code: # Sub Detectors = 0
InputMetaDataStoreWARNING retrieve(const): No valid proxy for object ByteStreamMetadata  of type ByteStreamMetadataContainer(CLID 1076128893)
DetectorStore     WARNING retrieve(default): No valid proxy for default object 
 of type TagInfo(CLID 61780915)
AthenaEventLoopMgr   INFO   ===>>>  done processing event #0, run #0 1 events processed so far  <<<===
AthenaEventLoopMgr   INFO   ===>>>  start processing event #1, run #0 1 events processed so far  <<<===
ClassIDSvc           INFO  getRegistryEntries: read 328 CLIDRegistry entries for module ALL
AthenaEventLoopMgr   INFO   ===>>>  done processing event #1, run #0 2 events processed so far  <<<===
AthenaEventLoopMgr   INFO   ===>>>  start processing event #2, run #0 2 events processed so far  <<<===
AthenaEventLoopMgr   INFO   ===>>>  done processing event #2, run #0 3 events processed so far  <<<===
AthenaEventLoopMgr   INFO   ===>>>  start processing event #3, run #0 3 events processed so far  <<<===
AthenaEventLoopMgr   INFO   ===>>>  done processing event #3, run #0 4 events processed so far  <<<===
AthenaEventLoopMgr   INFO   ===>>>  start processing event #4, run #0 4 events processed so far  <<<===
AthenaEventLoopMgr   INFO   ===>>>  done processing event #4, run #0 5 events processed so far  <<<===
AthenaEventLoopMgr   INFO   ===>>>  start processing event #5, run #0 5 events processed so far  <<<===
AthenaEventLoopMgr   INFO   ===>>>  done processing event #5, run #0 6 events processed so far  <<<===
AthenaEventLoopMgr   INFO   ===>>>  start processing event #6, run #0 6 events processed so far  <<<===
AthenaEventLoopMgr   INFO   ===>>>  done processing event #6, run #0 7 events processed so far  <<<===
AthenaEventLoopMgr   INFO   ===>>>  start processing event #7, run #0 7 events processed so far  <<<===
AthenaEventLoopMgr   INFO   ===>>>  done processing event #7, run #0 8 events processed so far  <<<===
AthenaEventLoopMgr   INFO   ===>>>  start processing event #8, run #0 8 events processed so far  <<<===
AthenaEventLoopMgr   INFO   ===>>>  done processing event #8, run #0 9 events processed so far  <<<===
AthenaEventLoopMgr   INFO   ===>>>  start processing event #9, run #0 9 events processed so far  <<<===
AthenaEventLoopMgr   INFO   ===>>>  done processing event #9, run #0 10 events processed so far  <<<===
AthenaEventLoopMgr   INFO   ===>>>  start processing event #10, run #0 10 events processed so far  <<<===
AthenaEventLoopMgr   INFO   ===>>>  done processing event #10, run #0 11 events processed so far  <<<===
AthenaEventLoopMgr   INFO   ===>>>  start processing event #11, run #0 11 events processed so far  <<<===
AthenaEventLoopMgr   INFO   ===>>>  done processing event #11, run #0 12 events processed so far  <<<===
AthenaEventLoopMgr   INFO   ===>>>  start processing event #12, run #0 12 events processed so far  <<<===
AthenaEventLoopMgr   INFO   ===>>>  done processing event #12, run #0 13 events processed so far  <<<===
AthenaEventLoopMgr   INFO   ===>>>  start processing event #13, run #0 13 events processed so far  <<<===
AthenaEventLoopMgr   INFO   ===>>>  done processing event #13, run #0 14 events processed so far  <<<===
AthenaEventLoopMgr   INFO   ===>>>  start processing event #14, run #0 14 events processed so far  <<<===
AthenaEventLoopMgr   INFO   ===>>>  done processing event #14, run #0 15 events processed so far  <<<===
AthenaEventLoopMgr   INFO   ===>>>  start processing event #15, run #0 15 events processed so far  <<<===
AthenaEventLoopMgr   INFO   ===>>>  done processing event #15, run #0 16 events processed so far  <<<===
AthenaEventLoopMgr   INFO   ===>>>  start processing event #16, run #0 16 events processed so far  <<<===
AthenaEventLoopMgr   INFO   ===>>>  done processing event #16, run #0 17 events processed so far  <<<===
AthenaEventLoopMgr   INFO   ===>>>  start processing event #17, run #0 17 events processed so far  <<<===
AthenaEventLoopMgr   INFO   ===>>>  done processing event #17, run #0 18 events processed so far  <<<===
AthenaEventLoopMgr   INFO   ===>>>  start processing event #18, run #0 18 events processed so far  <<<===
AthenaEventLoopMgr   INFO   ===>>>  done processing event #18, run #0 19 events processed so far  <<<===
AthenaEventLoopMgr   INFO   ===>>>  start processing event #19, run #0 19 events processed so far  <<<===
AthenaEventLoopMgr   INFO   ===>>>  done processing event #19, run #0 20 events processed so far  <<<===
Domain[ROOT_All]     INFO >   Deaccess DbDomain     READ      [ROOT_All] 
ApplicationMgr       INFO Application Manager Stopped successfully
IncidentProcAlg1     INFO Finalize
LoadWriteDicts       INFO Finalizing LoadWriteDicts...
IncidentProcAlg2     INFO Finalize
EventSelector        INFO finalize
ByteStreamEvent...   INFO number of events written: 20
DecisionSvc          INFO Finalized successfully.
PyComponentMgr       INFO Finalizing PyComponentMgr...
AthDictLoaderSvc     INFO in finalize...
ToolSvc              INFO Removing all tools created by ToolSvc
ToolSvc.TrigTSe...   INFO ToolSvc.TrigTSerializer no problems encountered
ChronoStatSvc.f...   INFO  Service finalized successfully 
ApplicationMgr       INFO Application Manager Finalized successfully
ApplicationMgr       INFO Application Manager Terminated successfully
Py:Athena            INFO leaving with code 0: "successful run"
